// Vitest Snapshot v1, https://vitest.dev/guide/snapshot.html

exports[`Render 1`] = `
<div>
  <svg
    class="lgc-ProgressLine-s1in2x12"
    style="width: 1200px;"
  >
    <path
      d="M123,0L10,15L-60,50L20,80"
      stroke="#abcabc"
    />
  </svg>
</div>
`;
