// Vitest Snapshot v1, https://vitest.dev/guide/snapshot.html

exports[`Render 1`] = `
<div>
  <button
    class="lgc-NakedButton-s1hp0a6c lgc-ButtonItem-s108evpa"
    type="button"
  >
    <span
      class="lgc-Icon-sq803sb"
    >
      <span
        class="material-symbols-outlined"
      >
        filter_alt
      </span>
    </span>
    クエリ
  </button>
</div>
`;
