[
  {
    "name":"インポートテストのチケットセット",
    "description":"チケットセットの説明",
    "issue_template_relations":[{
      "lychee_issue_template_from_id":1,
      "lychee_issue_template_to_id":3,
      "relation_type":"relates",
      "delay":null
    }],
    "issue_templates":[{
      "to_json_for_export":{
        "id":1,
        "subject":"チケットの題名1",
        "description":"チケットの説明です",
        "estimated_hours":null,
        "parent_id":null,
        "position":1,
        "custom_field_values":[
          ["存在しないコメント","コメントの内容"],
          ["作業難易度","1"],
          ["ポイント",""],
          ["作業者",null],
          ["キーバリューリスト",["選択肢1","選択肢2"]]
        ],
        "status":"新規",
        "tracker":"機能",
        "priority":"通常"
      }
    },{
      "to_json_for_export":{
        "id":2,
        "subject":"チケットの題名2",
        "description":"チケットの説明です",
        "estimated_hours":null,
        "parent_id":1,
        "position":1,
        "custom_field_values":[
          ["コメント","コメントの内容"],
          ["作業難易度","1"],
          ["ポイント",""],
          ["作業者",null],
          ["キーバリューリスト",["選択肢1"]]
        ],
        "status":"新規",
        "tracker":"機能",
        "priority":"通常"
      }
    },{
      "to_json_for_export":{
        "id":3,
        "subject":"チケットの題名3",
        "description":"チケットの説明です",
        "estimated_hours":null,
        "parent_id":null,
        "position":1,
        "custom_field_values":[
          ["コメント","コメントの内容"],
          ["作業難易度","1"],
          ["ポイント",""],
          ["作業者",null],
          ["キーバリューリスト",[null]]
        ],
        "status":"新規",
        "tracker":"機能",
        "priority":"通常"
      }
    }]
  }
]
