// Vitest Snapshot v1, https://vitest.dev/guide/snapshot.html

exports[`Render 1`] = `
<div>
  <span
    class=""
  >
    User #1
  </span>
</div>
`;

exports[`Render: Locked user 1`] = `
<div>
  <span
    class="lgc-AssociatedPrincipalNameContent-l1fdccz"
  >
    Locked user
  </span>
</div>
`;
