// Vitest Snapshot v1, https://vitest.dev/guide/snapshot.html

exports[`「関連するチケット」をレンダリング 1`] = `
<div>
  <span
    class="lgc-RelationsContent-s7hp5x1"
  >
    <span
      class="lgc-RelationsContent-i1gtlfzl"
    >
      次のチケットに先行 (-26日)
      <a
        href="/issues/123"
        rel="noreferrer"
        target="_blank"
        title="123の題名"
      >
        #
        123
      </a>
    </span>
    <span
      class="lgc-RelationsContent-i1gtlfzl"
    >
      ブロック先
      <a
        href="/issues/456"
        rel="noreferrer"
        target="_blank"
        title="456のチケット！"
      >
        #
        456
      </a>
    </span>
  </span>
</div>
`;
