<svg xmlns="http://www.w3.org/2000/svg" width="16" height="8" viewBox="0 0 16 8">
  <defs>
    <style>
      .cls-1 {
        fill: #aaa;
      }
    </style>
  </defs>
  <path id="パス_1" data-name="パス 1" class="cls-1" d="M14,7H6a4,4,0,0,0,0,8h8a4,4,0,0,0,0-8ZM6,13.4A2.4,2.4,0,1,1,8.4,11,2.4,2.4,0,0,1,6,13.4Z" transform="translate(-2 -7)"/>
</svg>
