// Vitest Snapshot v1, https://vitest.dev/guide/snapshot.html

exports[`Render 1`] = `
<div>
  <span
    class="lgc-Icon-sq803sb"
  >
    <span
      class="material-symbols-outlined"
    >
      chevron_right
    </span>
  </span>
</div>
`;

exports[`Render with optional props 1`] = `
<div>
  <span
    class="lgc-Icon-sq803sb"
  >
    <span
      class="material-symbols-outlined"
      style="font-size: 333px; transform: rotate(-90deg);"
    >
      chevron_right
    </span>
  </span>
</div>
`;
