// Vitest Snapshot v1, https://vitest.dev/guide/snapshot.html

exports[`Render 1`] = `
<div>
  <span
    class="lgc-Icon-sq803sb"
  >
    <img
      alt=""
      src="/path/to/base_url/images/ticket.png"
      width="16"
    />
  </span>
</div>
`;

exports[`Render with optional props 1`] = `
<div>
  <span
    class="lgc-Icon-sq803sb"
  >
    <img
      alt="バージョン"
      height="456"
      src="/path/to/base_url/images/package.png"
      width="123"
    />
  </span>
</div>
`;
