// Vitest Snapshot v1, https://vitest.dev/guide/snapshot.html

exports[`Render when invisible 1`] = `
<div>
  <div
    class="lgc-Header-sacs5n0 lgc-Header-i185faov"
    style="width: 123px;"
  >
    ButtonList: {}
    ConfigDialog: {}
  </div>
</div>
`;

exports[`Render when visible 1`] = `
<div>
  <div
    class="lgc-Header-sacs5n0"
    style="width: 123px;"
  >
    ButtonList: {}
    <div
      class="lgc-Header-crfb1t5"
    >
      <div
        style="width: 123px;"
      >
        ColumnList: {}
      </div>
    </div>
    ConfigDialog: {}
  </div>
</div>
`;
