// Vitest Snapshot v1, https://vitest.dev/guide/snapshot.html

exports[`Render 1`] = `
<div>
  <suspense-mock>
    RelationStateRefresher: {}
  </suspense-mock>
  IssueRelationLineContainer: {"width":3000}
  IssueRelationCreationCanceller: {"width":3000}
</div>
`;
