// Vitest Snapshot v1, https://vitest.dev/guide/snapshot.html

exports[`Render 1`] = `
<div>
  ProjectSubjectColumn: {"rowId":"project-3","isCollapsible":true,"depth":-1,"project":{"id":3,"name":"Main project"}}
  ProjectColumn: {"rowId":"project-3","project":{"id":3,"name":"Main project"},"column":{"name":"startDate"}}
  ProjectColumn: {"rowId":"project-3","project":{"id":3,"name":"Main project"},"column":{"name":"description"}}
</div>
`;
