<svg xmlns="http://www.w3.org/2000/svg" width="11.677" height="9.789" viewBox="0 0 11.677 9.789">
  <defs>
    <style>
      .cls-1 {
        fill: #aaa;
      }

      .cls-2 {
        fill: #fff;
        stroke: #aaa;
      }
    </style>
  </defs>
  <g id="グループ化_329" data-name="グループ化 329" transform="translate(0.5 0.5)">
    <path id="パス_121" data-name="パス 121" class="cls-1" d="M145.5,61.747h1.457v4.575a.677.677,0,0,0,.676.676h1.01v-.842H147.8V61.75h.842V60.9H145.5Z" transform="translate(-141.335 -59.157)"/>
    <path id="パス_122" data-name="パス 122" class="cls-2" d="M2.883,0H.721A.722.722,0,0,0,0,.721V3.6a.72.72,0,0,0,.721.719H2.883A.722.722,0,0,0,3.6,3.6V.721A.722.722,0,0,0,2.883,0Z"/>
    <path id="パス_123" data-name="パス 123" class="cls-2" d="M277.147,26.8h-1.686a.562.562,0,0,0-.561.561v1.686a.562.562,0,0,0,.561.561h1.686a.562.562,0,0,0,.561-.561V27.361A.562.562,0,0,0,277.147,26.8Z" transform="translate(-267.031 -26.033)"/>
    <path id="パス_125" data-name="パス 125" class="cls-2" d="M277.147,174h-1.686a.562.562,0,0,0-.561.561v1.686a.562.562,0,0,0,.561.561h1.686a.562.562,0,0,0,.561-.561v-1.686A.56.56,0,0,0,277.147,174Z" transform="translate(-267.031 -168.019)"/>
  </g>
</svg>
