// Vitest Snapshot v1, https://vitest.dev/guide/snapshot.html

exports[`Render 1`] = `
<div>
  <div
    class="lgc-ScrollableContainer-ssnjfi7"
  >
    <scrollable-mock>
      CHILD!
    </scrollable-mock>
    <centering-executor />
    <scroll-button-container />
  </div>
</div>
`;
