// Vitest Snapshot v1, https://vitest.dev/guide/snapshot.html

exports[`Render 1`] = `
<div>
  <div
    class="lgc-ColumnListContainer-sa2swbp"
  >
    AvailableColumnList: {}
    SelectedColumnList: {}
  </div>
</div>
`;
