// Vitest Snapshot v1, https://vitest.dev/guide/snapshot.html

exports[`Render 1`] = `
<div>
  <button
    class="lgc-NakedButton-s1hp0a6c lgc-SecondaryButton-sy39gmo"
    type="button"
  >
    LABEL!
  </button>
</div>
`;

exports[`Render with props 1`] = `
<div>
  <button
    class="lgc-NakedButton-s1hp0a6c lgc-SecondaryButton-sy39gmo test-class"
    type="submit"
  >
    LABEL!
  </button>
</div>
`;
