// Vitest Snapshot v1, https://vitest.dev/guide/snapshot.html

exports[`Render 1`] = `
<div>
  <column-mock
    name="start_date"
    rowid="version-3-3"
  >
    <cell-mock>
      ColumnContent: start_date {"value":"2022-01-01"}
    </cell-mock>
  </column-mock>
</div>
`;
