// Vitest Snapshot v1, https://vitest.dev/guide/snapshot.html

exports[`Render 1`] = `
<div>
  <div
    class="lgc-Item-sptlnup"
  >
    <button
      class="lgc-NakedButton-s1hp0a6c lgc-ButtonItem-s108evpa"
      type="button"
    >
      <span
        class="lgc-Icon-sq803sb"
      >
        <span
          class="material-symbols-outlined"
        >
          add
        </span>
      </span>
      新しいチケット
    </button>
    IssueCreationHotkeyInfo: {}
  </div>
</div>
`;
