// Vitest Snapshot v1, https://vitest.dev/guide/snapshot.html

exports[`Render 1`] = `
<div>
  <svg>
    <g
      class=""
    >
      Line: {"id":123,"relationType":"precedes","isDeletable":true,"isSelected":false,"offsetFrom":{"top":1,"bottom":2,"right":11,"middle":50},"offsetTo":{"top":101,"bottom":102,"left":111,"middle":150},"color":"#373ed5"}
      <path
        class="lgc-Arrow-s1dufie6"
        d="M 111 150l -5 -4v8z"
        fill="#373ed5"
      />
    </g>
  </svg>
</div>
`;

exports[`isDeletableIssueRelation: false 1`] = `
<div>
  <svg>
    <g
      class=""
    >
      Line: {"id":123,"relationType":"precedes","isDeletable":false,"isSelected":false,"offsetFrom":{"top":1,"bottom":2,"right":11,"middle":50},"offsetTo":{"top":101,"bottom":102,"left":111,"middle":150},"color":"#373ed5"}
      <path
        class="lgc-Arrow-s1dufie6"
        d="M 111 150l -5 -4v8z"
        fill="#373ed5"
      />
    </g>
  </svg>
</div>
`;

exports[`selected 1`] = `
<div>
  <svg>
    <g
      class=""
    >
      Line: {"id":123,"relationType":"precedes","isDeletable":true,"isSelected":true,"offsetFrom":{"top":1,"bottom":2,"right":11,"middle":50},"offsetTo":{"top":101,"bottom":102,"left":111,"middle":150},"color":"#373ed5"}
      <path
        class="lgc-Arrow-s1dufie6"
        d="M 111 150l -5 -4v8z"
        fill="#373ed5"
      />
    </g>
  </svg>
</div>
`;
