// Vitest Snapshot v1, https://vitest.dev/guide/snapshot.html

exports[`Render 1`] = `
<div>
  IssueSubjectColumn: {"rowId":"issue-2","issue":{"id":2,"subject":"parent"},"isCollapsible":true,"depth":-1}
  IssueColumn: {"rowId":"issue-2","issue":{"id":2,"subject":"parent"},"column":{"name":"startDate"}}
  IssueColumn: {"rowId":"issue-2","issue":{"id":2,"subject":"parent"},"column":{"name":"description"}}
</div>
`;
