// Vitest Snapshot v1, https://vitest.dev/guide/snapshot.html

exports[`Render 1`] = `
<div>
  <div
    class="lgc-IssueIdFieldInput-c121abxf"
  >
    <input
      class="lgc-IssueIdFieldInput-sewz3lz"
      type="text"
    />
  </div>
</div>
`;
