// Vitest Snapshot v1, https://vitest.dev/guide/snapshot.html

exports[`Render 1`] = `
<div>
  <div
    class="lgc-CollapsibleButtonList-sx9hk1p"
  >
    <row-mock
      id="project-3"
    >
      <div
        data-column="collapsibleButton"
      >
        ToggleRowCollapseButton: {"id":"project-3"}
      </div>
    </row-mock>
    <row-mock
      id="issue-1"
    >
      <div
        data-column="collapsibleButton"
      >
        ToggleRowCollapseButton: {"id":"issue-1"}
      </div>
    </row-mock>
    <row-mock
      id="issue-4"
    />
  </div>
</div>
`;
