// Vitest Snapshot v1, https://vitest.dev/guide/snapshot.html

exports[`データ列が表示されていない時のレンダリング 1`] = `
<div>
  <div
    class="lgc-DataTable-s194au74"
    style="width: 200px; height: 100px;"
  >
    ColumnStyles: {}
    RowNumberColumnWidthComputer: {}
    ColumnSizeAutoAdjuster: {}
    LastColumnResizeHandle: {}
    CollapsibleButtonList: {}
    SelectableCellContainer: {"containerRef":{"current":null}}
  </div>
</div>
`;

exports[`データ列が表示されている時のレンダリング 1`] = `
<div>
  <div
    class="lgc-DataTable-s194au74"
    style="width: 200px; height: 100px;"
  >
    ColumnStyles: {}
    RowNumberColumnWidthComputer: {}
    ColumnSizeAutoAdjuster: {}
    LastColumnResizeHandle: {}
    RowList: {}
    SelectableCellContainer: {"containerRef":{"current":null}}
  </div>
</div>
`;
