// Vitest Snapshot v1, https://vitest.dev/guide/snapshot.html

exports[`Render 1`] = `
<div>
  <span
    class="lgc-IssueCreationHotkeyInfo-sjbrgah"
  >
    <span
      class="lgc-Icon-sq803sb"
    >
      <span
        class="material-symbols-outlined"
        style="font-size: 14px;"
      >
        info
      </span>
    </span>
  </span>
  <floating-portal />
</div>
`;

exports[`マウスオーバーでメッセージ表示 1`] = `
<div>
  <span
    class="lgc-IssueCreationHotkeyInfo-sjbrgah"
  >
    <span
      class="lgc-Icon-sq803sb"
    >
      <span
        class="material-symbols-outlined"
        style="font-size: 14px;"
      >
        info
      </span>
    </span>
  </span>
  <floating-portal>
    <div
      class="lgc-Tooltip-t52qlle"
      style="position: absolute; left: 0px; top: 0px; transform: translate(0px, 0px);"
      tabindex="-1"
    >
      <span
        class="lgc-IssueCreationHotkeyInfo-hy0yva3"
      >
        <kbd>
          <kbd>
            Shift
          </kbd>
           + 
          <kbd>
            Alt
          </kbd>
        </kbd>
         とマウスカーソルで
任意の場所にチケットを追加できます。
      </span>
      <floating-arrow />
    </div>
  </floating-portal>
</div>
`;
