<svg xmlns="http://www.w3.org/2000/svg" width="14" height="14" viewBox="0 0 20 14.99">
  <defs>
    <style>.cls-1{fill:#f29600;}</style>
  </defs>
  <g id="レイヤー_2" data-name="レイヤー 2">
    <g id="レイヤー_1-2" data-name="レイヤー 1">
      <path class="cls-1" d="M10,8.64a1.24,1.24,0,0,0,.85-.32L19.68.63a1.15,1.15,0,0,0-.14-.17A1.56,1.56,0,0,0,18.42,0H1.58A1.56,1.56,0,0,0,.46.46,1.15,1.15,0,0,0,.32.63L9.15,8.32A1.27,1.27,0,0,0,10,8.64Z"/>
      <path class="cls-1" d="M11.84,9.46a2.83,2.83,0,0,1-3.68,0l-.63-.55L.8,14.78a1.57,1.57,0,0,0,.78.21H18.42a1.57,1.57,0,0,0,.78-.21L12.47,8.91Z"/>
      <path class="cls-1" d="M0,2.34V13.48L6.39,7.91Z"/>
      <path class="cls-1" d="M13.61,7.91,20,13.48V2.34Z"/>
    </g>
  </g>
</svg>
