// Jest Snapshot v1, https://goo.gl/fbAQLP

exports[`Storyshots IssueList Basic 1`] = `
<table
  className="list"
>
  <thead>
    <tr>
      <th>
        #
      </th>
      <th>
        題名
      </th>
    </tr>
  </thead>
  <tbody>
    <tr
      className="issue"
    >
      <td
        className="id"
      >
        <div
          dangerouslySetInnerHTML={
            Object {
              "__html": "1",
            }
          }
        />
      </td>
      <td
        className="subject"
      >
        <div
          dangerouslySetInnerHTML={
            Object {
              "__html": "issue-1",
            }
          }
        />
      </td>
    </tr>
    <tr
      className="issue"
    >
      <td
        className="id"
      >
        <div
          dangerouslySetInnerHTML={
            Object {
              "__html": "2",
            }
          }
        />
      </td>
      <td
        className="subject"
      >
        <div
          dangerouslySetInnerHTML={
            Object {
              "__html": "issue-2",
            }
          }
        />
      </td>
    </tr>
  </tbody>
</table>
`;

exports[`Storyshots IssueList Empty 1`] = `
<div
  className="mb-3 whitespace-pre-wrap rounded-[3px] border border-[#eadbbc] bg-[#f3edd1] py-1.5 pl-[1.875rem] pr-1 text-center text-[1.1em] text-[#a6750c]"
>
  noData
</div>
`;

exports[`Storyshots PanelImporter Basic 1`] = `
<div
  style={
    Object {
      "height": "100vh",
    }
  }
>
  <div
    className="flex items-center justify-center space-x-1"
  >
    <div>
      copyFrom
      :
    </div>
    <select
      className="h-full border py-1.5 pl-2 pr-6"
      onChange={[Function]}
      value="project-1"
    >
      <option
        value=""
      />
      <option
        value="project-1"
      >
        Project 1
      </option>
    </select>
    <button
      className="h-full border bg-white px-2 py-1 text-sm"
      disabled={false}
      onClick={[Function]}
      type="submit"
    >
      copy
    </button>
  </div>
</div>
`;

exports[`Storyshots chartjs/BarChart Default 1`] = `
<div
  style={
    Object {
      "height": "90vh",
    }
  }
>
  <canvas
    height={150}
    role="img"
    width={300}
  />
</div>
`;

exports[`Storyshots chartjs/LineChart Default 1`] = `
<div
  style={
    Object {
      "height": "90vh",
    }
  }
>
  <canvas
    height={150}
    role="img"
    width={300}
  />
</div>
`;

exports[`Storyshots chartjs/PieChart Default 1`] = `
<div
  style={
    Object {
      "height": "90vh",
    }
  }
>
  <canvas
    height={300}
    role="img"
    width={300}
  />
</div>
`;

exports[`Storyshots google/BarChart Basic 1`] = `
<div
  style={
    Object {
      "height": "100vh",
    }
  }
/>
`;

exports[`Storyshots google/PieChart Basic 1`] = `
<div
  style={
    Object {
      "height": "100vh",
    }
  }
/>
`;
