// Vitest Snapshot v1, https://vitest.dev/guide/snapshot.html

exports[`メイングリッドがDayGridRowの場合のレンダリング 1`] = `
<div>
  <svg
    style="width: 3000px; height: 1200px;"
  >
    DayGridRow: {"columns":[{"id":"day-2022-07-22","type":"day","width":2,"label":"22","isNonWorkingDay":false,"isBeforeInvisibleDay":false,"isAfterInvisibleDay":false}]}
    UnitedGridRow: {"columns":[{"id":"day-2022-07-22","type":"day","width":2,"label":"22","isNonWorkingDay":false,"isBeforeInvisibleDay":false,"isAfterInvisibleDay":false}]}
    TodayLine
  </svg>
</div>
`;

exports[`メイングリッドがUnitedGridRowの場合のレンダリング 1`] = `
<div>
  <svg
    style="width: 3000px; height: 1200px;"
  >
    UnitedGridRow: {"columns":[{"id":"month-2022-07","type":"month","label":"7","width":60}]}
    TodayLine
  </svg>
</div>
`;
