// Vitest Snapshot v1, https://vitest.dev/guide/snapshot.html

exports[`Render 1`] = `
<div>
  <subject-column
    depth="-1"
    iscollapsible="true"
    rowid="group-status-1"
  >
    <span
      class="lgc-GroupRowContent-l1irei0w"
    >
      GroupLabel: {"value":1}
    </span>
    <span
      class="lgc-GroupRowContent-c1ez3mgf"
    >
      3
    </span>
  </subject-column>
  <column-mock
    name="start_date"
    rowid="group-status-1"
  />
  <column-mock
    name="description"
    rowid="group-status-1"
  />
</div>
`;
