// Vitest Snapshot v1, https://vitest.dev/guide/snapshot.html

exports[`Render 1`] = `
<div>
  <row-component
    classname="lgc-Row-s196zirt fooClass"
    rowid="issue-1"
  >
    CHILD!!
  </row-component>
</div>
`;
