// Vitest Snapshot v1, https://vitest.dev/guide/snapshot.html

exports[`Render 1`] = `
<div>
  TaskBarsRefresher: {}
  BaselineStatesRefresher: {}
  RowSelector
  <div
    class="lgc-Timeline-s1mqs8dj"
    style="height: 888px;"
  >
    TaskBarHighlightStyles
    <scrollable-container>
      Grid
      RowList
      RelationLineContainer: {"width":999}
      ProgressLineContainer: {"width":999}
      TimeRangeGuideline: {}
      TreeBlockContainer: {"width":999}
    </scrollable-container>
  </div>
</div>
`;
