// Vitest Snapshot v1, https://vitest.dev/guide/snapshot.html

exports[`Render 1`] = `
<div>
  <button
    class="lgc-NakedButton-s1hp0a6c"
    title="中心へスクロール"
    type="button"
  >
    <span
      class="lgc-Icon-sq803sb"
    >
      <span
        class="material-symbols-outlined"
        style="font-size: 22px; transform: rotate(90deg);"
      >
        vertical_align_center
      </span>
    </span>
  </button>
</div>
`;
