// Vitest Snapshot v1, https://vitest.dev/guide/snapshot.html

exports[`Render 1`] = `
<div>
  <button
    class="lgc-NakedButton-s1hp0a6c lgc-TimeAxisTypeSelect-s127uk1k"
    type="button"
  >
    <span
      class="lgc-Icon-sq803sb"
    >
      <span
        class="material-symbols-outlined"
      >
        expand_more
      </span>
    </span>
    <select>
      <option
        value="monthSmall"
      >
        月別（小）
      </option>
      <option
        value="monthLarge"
      >
        月別（大）
      </option>
      <option
        value="week"
      >
        週別
      </option>
      <option
        value="daySmall"
      >
        日別（小）
      </option>
      <option
        value="dayLarge"
      >
        日別（大）
      </option>
    </select>
  </button>
</div>
`;
